{
    "population":[
            {
                "alias": "trap_pop",
                "spec":{
                        "projCode": "P",
                        "compTypeCode": "OEC_CARBON_FOAM_TRAPEZOIDS_HR",
                        "instList": ["MAN","INFN_GENOA","LIV"],
                        "filters": []
                }
            },
            {
                "alias": "HS_pop",
                "spec":{
                        "projCode": "P",
                        "compTypeCode": "OEC_HALF_SANDWICH",
                        "instList": ["MAN","INFN_GENOA"],
                        "filters": []
                }
            }
    ],
    "extraction":[
            {
                "usePopulations": ["trap_pop"],
                "alias": "trap_comps",
                "compSummary": true,
                "stageOrder": true
            },
            {
                "usePopulations": ["trap_pop"],
                "alias": "trap_stages",
                "stageSummary": true
            },
            {
                "usePopulations": ["trap_pop"],
                "alias": "trap_tests",
                "testSummary": true,
                "spec": "all"
            },
            {
                "usePopulations": ["HS_pop"],
                "alias": "HS_comps",
                "compSummary": true,
                "stageOrder": true
            },
            {
                "usePopulations": ["HS_pop"],
                "alias": "HS_stages",
                "stageSummary": true
            },
            {
                "usePopulations": ["HS_pop"],
                "alias": "HS_tests",
                "testSummary": true,
                "spec": "all"
            }
    ],
    "visualisation":[
            {
                "useExtractions":[
                        "trap_comps"
                ],
                "compSummary": true,
                "alias": "trap_comp_stuff"
            },
            {
                "useExtractions":[
                        "trap_stages"
                ],
                "stageSummary": true,
                "alias": "trap_stage_stuff"
            },
            {
                "useExtractions":[
                        "trap_tests"
                ],
                "testSummary": true,
                "alias": "trap_test_stuff"
            },
            {
                "useExtractions":[
                        "HS_comps"
                ],
                "compSummary": true,
                "alias": "HS_comp_stuff"
            },
            {
                "useExtractions":[
                        "HS_stages"
                ],
                "stageSummary": true,
                "alias": "HS_stage_stuff"
            },
            {
                "useExtractions":[
                        "HS_tests"
                ],
                "testSummary": true,
                "alias": "HS_test_stuff"
            }
    ],
    "distribution":[
            {
                "alias": "local_supports_stuff",
                "reportName": "local_supports_stuff_remote",
                "location": "remote_datapane",
                "code": "023d086282e051b50eae8a5e49276cfb294f707d",
                "useVisualisations":[
                        "trap_comp_stuff",
                        "trap_stage_stuff",
                        "trap_test_stuff",
                        "HS_comp_stuff",
                        "HS_stage_stuff",
                        "HS_test_stuff"
                ]
            }
    ]
}
