{
        "population": [
            {
                "alias": "pop_comps",
                "spec": {
                    "projCode": "S",
                    "compTypeCode": "MODULE",
                    "clusCode": "STRIPS-LC-UKCHINA",
                    "filters": []
                }
            }
        ],
        "extraction": [
            {
                "usePopulations": [
                    "pop_comps"
                ],
                "alias": "ext_tests",
                "spec": [
                    {
                        "testCode": "MODULE_IV_PS_V1"
                    }
                ]
            }
        ],
        "visualisation": [
            {
                "useExtractions": [
                    "ext_tests"
                ],
                "alias": "ext_tests_DQ",
                "DQ": true,
                "custom": []
            }
        ],
        "distribution": [
            {
                "alias": "tests_DQ",
                "reportName": "TTDB-S-MODULE-MODULE_IV_PS_V1",
                "location": "remote_datapane",
                "code": "023d086282e051b50eae8a5e49276cfb294f707d",
                "useVisualisations": [
                    "ext_tests_DQ"
                ]
            }
        ]
    }