{
  "population": [
    {
      "alias": "inv_pop",
      "spec": {
        "projCode": "S",
        "instCode": "SHF",
        "filters": []
      }
    }
  ],
  "extraction": [
    {
      "usePopulations": [
        "inv_pop"
      ],
      "alias": "inv_pop_comps",
      "compSummary": true,
      "stageOrder": true
    },
    {
      "usePopulations": [
        "inv_pop"
      ],
      "alias": "inv_pop_stages",
      "stageSummary": true
    },
    {
      "usePopulations": [
        "inv_pop"
      ],
      "alias": "inv_pop_tests",
      "testSummary": true,
      "spec": "all"
    }
  ],
  "visualisation": [
    {
      "useExtractions": [
        "inv_pop_comps"
      ],
      "compSummary": true,
      "alias": "inv_pop_comps_stuff"
    },
    {
      "useExtractions": [
        "inv_pop_stages"
      ],
      "stageSummary": true,
      "alias": "inv_pop_stages_stuff"
    },
    {
      "useExtractions": [
        "inv_pop_tests"
      ],
      "testSummary": true,
      "alias": "inv_pop_tests_stuff"
    }
  ],
  "distribution": [
    {
      "alias": "inv_pop_stuff",
      "reportName": "inventory_report",
      "location": "local",
      "reportDir": "outputs",
      "trim": true,
      "aggregate": true,
      "useVisualisations": [
        "inv_pop_comps_stuff",
        "inv_pop_stages_stuff",
        "inv_pop_tests_stuff"
      ]
    }
  ]
}
